{
    "name": "MVC Framework",
    "description": "MVC Framework",
    "keywords": ["framework"],
    "license": "MIT",
    "type": "project",
    "require": {
        "phpunit/phpunit": "~4.0",
        "phpoffice/phpexcel": "^1.8",
        "phpoffice/phpword": "v0.13.*",
        "guzzlehttp/guzzle": "~6.0",
        "phpmailer/phpmailer": "~5.2",
        "setasign/fpdf": "1.8.1",
        "twig/twig": "^1.27",
        "fabpot/goutte": "^3.1",
        "fzaninotto/faker": "^1.6",
        "mrrio/shellwrap": "^0.4.1",
        "nesbot/carbon": "~1.21",
        "omnipay/omnipay": "~2.0",
        "codeguy/upload": "^1.3"
    },
    "require-dev": {
        "fzaninotto/faker": "^1.6",
        "phpunit/phpunit": "~4.0"
    },
    "autoload": {
        "psr-4": {
            "App\\": "app/"
        }
    }
}
